<svg width="15" height="17" viewBox="0 0 15 17" fill="none" xmlns="http://www.w3.org/2000/svg">
<path d="M12.6092 6.8071C12.6092 10.0121 10.0121 12.6142 6.80208 12.6142C3.5921 12.6142 1 10.0121 1 6.8071C1 3.60214 3.59712 1 6.8071 1C7.40992 1 7.99264 1.09042 8.54019 1.26122C8.83155 1.35164 9.11789 1.46718 9.38915 1.60281C9.57502 1.69826 9.76089 1.79873 9.93671 1.91427C10.4993 2.27596 10.9916 2.72807 11.4036 3.2505C12.1571 4.23008 12.6092 5.46584 12.6092 6.8071Z" stroke="#7483BE" stroke-miterlimit="10" stroke-linecap="round" stroke-linejoin="round"/>
<path d="M10.1577 11.5142L13.9906 16.0001" stroke="#7483BE" stroke-miterlimit="10" stroke-linecap="round" stroke-linejoin="round"/>
</svg>
